module acecomm

go 1.17

require (
	github.com/go-kit/kit v0.10.0
	github.com/gorilla/mux v1.8.0
	github.com/hyperledger/aries-framework-go v0.1.7
	github.com/ipfs/go-ipfs v0.10.0
	github.com/ipfs/go-ipfs-config v0.16.0
	github.com/jbenet/go-temp-err-catcher v0.1.0
	github.com/libp2p/go-libp2p v0.15.0
	github.com/libp2p/go-libp2p-connmgr v0.2.4
	github.com/libp2p/go-libp2p-core v0.9.0
	github.com/libp2p/go-libp2p-kad-dht v0.13.1
	github.com/multiformats/go-multiaddr v0.4.0
	github.com/multiformats/go-multiaddr-dns v0.3.1
	github.com/sirupsen/logrus v1.8.1
	go.bryk.io/pkg v0.0.0-20211114002254-3eaea3a8eb52
)

require (
	github.com/awnumar/memcall v0.0.0-20191004114545-73db50fd9f80 // indirect
	github.com/awnumar/memguard v0.22.2 // indirect
	github.com/benbjohnson/clock v1.1.0 // indirect
	github.com/beorn7/perks v1.0.1 // indirect
	github.com/btcsuite/btcd v0.22.0-beta // indirect
	github.com/btcsuite/btcutil v1.0.3-0.20201208143702-a53e38424cce // indirect
	github.com/cespare/xxhash/v2 v2.1.1 // indirect
	github.com/davecgh/go-spew v1.1.1 // indirect
	github.com/davidlazar/go-crypto v0.0.0-20200604182044-b73af7476f6c // indirect
	github.com/flynn/noise v1.0.0 // indirect
	github.com/go-logfmt/logfmt v0.5.0 // indirect
	github.com/gogo/protobuf v1.3.2 // indirect
	github.com/golang/protobuf v1.5.2 // indirect
	github.com/google/gopacket v1.1.19 // indirect
	github.com/google/uuid v1.3.0 // indirect
	github.com/gorilla/websocket v1.4.2 // indirect
	github.com/hashicorp/errwrap v1.0.0 // indirect
	github.com/hashicorp/go-multierror v1.1.1 // indirect
	github.com/huin/goupnp v1.0.2 // indirect
	github.com/hyperledger/aries-framework-go/spi v0.0.0-20210820175050-dcc7a225178d // indirect
	github.com/ipfs/bbloom v0.0.4 // indirect
	github.com/ipfs/go-block-format v0.0.3 // indirect
	github.com/ipfs/go-blockservice v0.1.7 // indirect
	github.com/ipfs/go-cid v0.0.7 // indirect
	github.com/ipfs/go-datastore v0.4.6 // indirect
	github.com/ipfs/go-ipfs-blockstore v0.1.6 // indirect
	github.com/ipfs/go-ipfs-ds-help v0.1.1 // indirect
	github.com/ipfs/go-ipfs-exchange-interface v0.0.1 // indirect
	github.com/ipfs/go-ipfs-util v0.0.2 // indirect
	github.com/ipfs/go-ipld-cbor v0.0.5 // indirect
	github.com/ipfs/go-ipld-format v0.2.0 // indirect
	github.com/ipfs/go-ipld-legacy v0.1.0 // indirect
	github.com/ipfs/go-ipns v0.1.2 // indirect
	github.com/ipfs/go-log v1.0.5 // indirect
	github.com/ipfs/go-log/v2 v2.3.0 // indirect
	github.com/ipfs/go-merkledag v0.4.0 // indirect
	github.com/ipfs/go-metrics-interface v0.0.1 // indirect
	github.com/ipfs/go-verifcid v0.0.1 // indirect
	github.com/ipfs/interface-go-ipfs-core v0.5.1 // indirect
	github.com/ipld/go-codec-dagpb v1.3.0 // indirect
	github.com/ipld/go-ipld-prime v0.12.2 // indirect
	github.com/jackpal/go-nat-pmp v1.0.2 // indirect
	github.com/jbenet/goprocess v0.1.4 // indirect
	github.com/kilic/bls12-381 v0.1.1-0.20210503002446-7b7597926c69 // indirect
	github.com/klauspost/cpuid/v2 v2.0.9 // indirect
	github.com/koron/go-ssdp v0.0.2 // indirect
	github.com/libp2p/go-addr-util v0.1.0 // indirect
	github.com/libp2p/go-buffer-pool v0.0.2 // indirect
	github.com/libp2p/go-cidranger v1.1.0 // indirect
	github.com/libp2p/go-conn-security-multistream v0.2.1 // indirect
	github.com/libp2p/go-eventbus v0.2.1 // indirect
	github.com/libp2p/go-flow-metrics v0.0.3 // indirect
	github.com/libp2p/go-libp2p-asn-util v0.0.0-20200825225859-85005c6cf052 // indirect
	github.com/libp2p/go-libp2p-autonat v0.4.2 // indirect
	github.com/libp2p/go-libp2p-blankhost v0.2.0 // indirect
	github.com/libp2p/go-libp2p-circuit v0.4.0 // indirect
	github.com/libp2p/go-libp2p-discovery v0.5.1 // indirect
	github.com/libp2p/go-libp2p-kbucket v0.4.7 // indirect
	github.com/libp2p/go-libp2p-mplex v0.4.1 // indirect
	github.com/libp2p/go-libp2p-nat v0.0.6 // indirect
	github.com/libp2p/go-libp2p-noise v0.2.2 // indirect
	github.com/libp2p/go-libp2p-peerstore v0.2.8 // indirect
	github.com/libp2p/go-libp2p-pnet v0.2.0 // indirect
	github.com/libp2p/go-libp2p-record v0.1.3 // indirect
	github.com/libp2p/go-libp2p-swarm v0.5.3 // indirect
	github.com/libp2p/go-libp2p-tls v0.2.0 // indirect
	github.com/libp2p/go-libp2p-transport-upgrader v0.4.6 // indirect
	github.com/libp2p/go-libp2p-yamux v0.5.4 // indirect
	github.com/libp2p/go-maddr-filter v0.1.0 // indirect
	github.com/libp2p/go-mplex v0.3.0 // indirect
	github.com/libp2p/go-msgio v0.0.6 // indirect
	github.com/libp2p/go-nat v0.0.5 // indirect
	github.com/libp2p/go-netroute v0.1.6 // indirect
	github.com/libp2p/go-openssl v0.0.7 // indirect
	github.com/libp2p/go-reuseport v0.0.2 // indirect
	github.com/libp2p/go-reuseport-transport v0.0.5 // indirect
	github.com/libp2p/go-sockaddr v0.1.1 // indirect
	github.com/libp2p/go-stream-muxer-multistream v0.3.0 // indirect
	github.com/libp2p/go-tcp-transport v0.2.8 // indirect
	github.com/libp2p/go-ws-transport v0.5.0 // indirect
	github.com/libp2p/go-yamux/v2 v2.2.0 // indirect
	github.com/marten-seemann/tcp v0.0.0-20210406111302-dfbc87cc63fd // indirect
	github.com/mattn/go-isatty v0.0.13 // indirect
	github.com/matttproud/golang_protobuf_extensions v1.0.1 // indirect
	github.com/miekg/dns v1.1.43 // indirect
	github.com/mikioh/tcpinfo v0.0.0-20190314235526-30a79bb1804b // indirect
	github.com/mikioh/tcpopt v0.0.0-20190314235656-172688c1accc // indirect
	github.com/minio/blake2b-simd v0.0.0-20160723061019-3f5f724cb5b1 // indirect
	github.com/minio/sha256-simd v1.0.0 // indirect
	github.com/mitchellh/go-homedir v1.1.0 // indirect
	github.com/mr-tron/base58 v1.2.0 // indirect
	github.com/multiformats/go-base32 v0.0.3 // indirect
	github.com/multiformats/go-base36 v0.1.0 // indirect
	github.com/multiformats/go-multiaddr-fmt v0.1.0 // indirect
	github.com/multiformats/go-multibase v0.0.3 // indirect
	github.com/multiformats/go-multicodec v0.3.0 // indirect
	github.com/multiformats/go-multihash v0.0.15 // indirect
	github.com/multiformats/go-multistream v0.2.2 // indirect
	github.com/multiformats/go-varint v0.0.6 // indirect
	github.com/opentracing/opentracing-go v1.2.0 // indirect
	github.com/piprate/json-gold v0.4.1-0.20210813112359-33b90c4ca86c // indirect
	github.com/pkg/errors v0.9.1 // indirect
	github.com/pmezard/go-difflib v1.0.0 // indirect
	github.com/polydawn/refmt v0.0.0-20201211092308-30ac6d18308e // indirect
	github.com/pquerna/cachecontrol v0.0.0-20180517163645-1555304b9b35 // indirect
	github.com/prometheus/client_golang v1.11.0 // indirect
	github.com/prometheus/client_model v0.2.0 // indirect
	github.com/prometheus/common v0.30.0 // indirect
	github.com/prometheus/procfs v0.7.3 // indirect
	github.com/spacemonkeygo/spacelog v0.0.0-20180420211403-2296661a0572 // indirect
	github.com/square/go-jose/v3 v3.0.0-20200630053402-0a67ce9b0693 // indirect
	github.com/stretchr/testify v1.7.0 // indirect
	github.com/teserakt-io/golang-ed25519 v0.0.0-20210104091850-3888c087a4c8 // indirect
	github.com/whyrusleeping/cbor-gen v0.0.0-20210219115102-f37d292932f2 // indirect
	github.com/whyrusleeping/go-keyspace v0.0.0-20160322163242-5b898ac5add1 // indirect
	github.com/whyrusleeping/multiaddr-filter v0.0.0-20160516205228-e903e4adabd7 // indirect
	github.com/xeipuuv/gojsonpointer v0.0.0-20190905194746-02993c407bfb // indirect
	github.com/xeipuuv/gojsonreference v0.0.0-20180127040603-bd5ef7bd5415 // indirect
	github.com/xeipuuv/gojsonschema v1.2.0 // indirect
	go.bryk.io/miracl v0.4.0 // indirect
	go.opencensus.io v0.23.0 // indirect
	go.uber.org/atomic v1.9.0 // indirect
	go.uber.org/multierr v1.7.0 // indirect
	go.uber.org/zap v1.19.1 // indirect
	golang.org/x/crypto v0.0.0-20211108221036-ceb1ce70b4fa // indirect
	golang.org/x/sync v0.0.0-20210220032951-036812b2e83c // indirect
	golang.org/x/xerrors v0.0.0-20200804184101-5ec99f83aff1 // indirect
	google.golang.org/protobuf v1.27.1 // indirect
	gopkg.in/yaml.v3 v3.0.0-20210107192922-496545a6307b // indirect
)

require (
	github.com/hashicorp/golang-lru v0.5.5-0.20210104140557-80c98217689d // indirect
	github.com/kr/text v0.2.0 // indirect
	golang.org/x/net v0.0.0-20211112202133-69e39bad7dc2 // indirect
	golang.org/x/sys v0.0.0-20211103235746-7861aae1554b
)
